{
  "profiles": {
    "SunCity": {
      "commandName": "Executable",
      "executablePath": "D:\\work\\SunCity\\SunCity.Server\\ragemp-server.exe",
      "workingDirectory": "D:\\work\\SunCity\\SunCity.Server",
      "launchBrowser": true,
      "launchUrl": "https://localhost:5001",
      "environmentVariables": {
        "ASPNETCORE_ENVIRONMENT1": "USE_MOCK_USERS"
      },
      "remoteDebugEnabled": false,
      "nativeDebugging": true,
      "use64Bit": true,
      "applicationUrl": "https://localhost:5001;http://localhost:5000"
    }
  }
}